2018_Ari_aliphatic_thermalmaturity
…
    #Normalize by what you want
    conc_rock.ug_g = amount.ug / rock.g, 
    conc_tle.ug.g = amount.ug / tle,  
    conc_maltene.ug.g = amount.ug / maltene
    
  )%>% ungroup() %>% 
  arrange(file_id, peak_name) 

data_by_depth

## # A tibble: 422 x 19
##    file_id  peak_name RT.min area.cpm height.cts    OG depth rock.g    tle
##    <chr>    <chr>      <dbl>    <dbl>      <dbl> <dbl> <dbl>  <dbl>  <dbl>
##  1 TSQ3779 20R 4a,2   36.2    317         4753   229  3420   5.24 0.0472
##  2 TSQ3779 20R, 4a    32.8     25.3       1084   229  3420   5.24 0.0472
##  3 TSQ3779 20R, 4a    32.3     72.0       1864   229  3420   5.24 0.0472
##  4 TSQ3779 20R, 4a,   36.9     61.4       2966   229  3420   5.24 0.0472
##  5 TSQ3779 20S, 4a    32.2    155         3152   229  3420   5.24 0.0472
##  6 TSQ3779 20S, 4a,   37.1    524         6946   229  3420   5.24 0.0472
##  7 TSQ3779 20S, 4a,   35.5    414         7003   229  3420   5.24 0.0472
##  8 TSQ3779 25-nor C   37.7    432         7445   229  3420   5.24 0.0472
##  9 TSQ3779 28, 30 C   37.2   2310         7244   229  3420   5.24 0.0472
## 10 TSQ3779 29, 30 C   36.0   1161        15685   229  3420   5.24 0.0472
## # ... with 412 more rows, and 10 more variables: maltene <dbl>,
## #   ref_amount_added.ug <dbl>, process <chr>, n_peaks <int>,
## #   n_standards <int>, ref_area.cpm <dbl>, amount.ug <dbl>,
## #   conc_rock.ug_g <dbl>, conc_tle.ug.g <dbl>, conc_maltene.ug.g <dbl>
…
calib_data

## # A tibble: 422 x 34
##    file_id  peak_name RT.min area.cpm height.cts    OG depth rock.g    tle
##    <chr>    <chr>      <dbl>    <dbl>      <dbl> <dbl> <dbl>  <dbl>  <dbl>
##  1 TSQ3779 20R 4a,2   36.2    317         4753   229  3420   5.24 0.0472
##  2 TSQ3779 20R, 4a    32.8     25.3       1084   229  3420   5.24 0.0472
##  3 TSQ3779 20R, 4a    32.3     72.0       1864   229  3420   5.24 0.0472
##  4 TSQ3779 20R, 4a,   36.9     61.4       2966   229  3420   5.24 0.0472
##  5 TSQ3779 20S, 4a    32.2    155         3152   229  3420   5.24 0.0472
##  6 TSQ3779 20S, 4a,   37.1    524         6946   229  3420   5.24 0.0472
##  7 TSQ3779 20S, 4a,   35.5    414         7003   229  3420   5.24 0.0472
##  8 TSQ3779 25-nor C   37.7    432         7445   229  3420   5.24 0.0472
##  9 TSQ3779 28, 30 C   37.2   2310         7244   229  3420   5.24 0.0472
## 10 TSQ3779 29, 30 C   36.0   1161        15685   229  3420   5.24 0.0472
## # ... with 412 more rows, and 25 more variables: maltene <dbl>,
## #   ref_amount_added.ug <dbl>, process <chr>, n_peaks <int>,
## #   n_standards <int>, ref_area.cpm <dbl>, amount.ug <dbl>,
## #   conc_rock.ug_g <dbl>, conc_tle.ug.g <dbl>, conc_maltene.ug.g <dbl>,
## #   calibration <chr>, data <list>, fit <list>, coefficients <list>,
## #   intercept <dbl>, intercept_se <dbl>, slope <dbl>, slope_se <dbl>,
## #   r2 <dbl>, total_volume.uL <dbl>, total_inject.uL <dbl>,
## #   ref_amount_inject_expected.ng <dbl>,
## #   ref_amount_inject_measured.ng <dbl>, ref_amount_measured.ug <dbl>,
…
 ) }) %>% ungroup() 
  
final_data

## # A tibble: 524 x 35
##    file_id  peak_name RT.min area.cpm height.cts    OG depth rock.g    tle
##    <chr>    <chr>      <dbl>    <dbl>      <dbl> <dbl> <dbl>  <dbl>  <dbl>
##  1 TSQ3779 20R 4a,2   36.2    317         4753   229  3420   5.24 0.0472
##  2 TSQ3779 20R, 4a    32.8     25.3       1084   229  3420   5.24 0.0472
##  3 TSQ3779 20R, 4a    32.3     72.0       1864   229  3420   5.24 0.0472
##  4 TSQ3779 20R, 4a,   36.9     61.4       2966   229  3420   5.24 0.0472
##  5 TSQ3779 20S, 4a    32.2    155         3152   229  3420   5.24 0.0472
##  6 TSQ3779 20S, 4a,   37.1    524         6946   229  3420   5.24 0.0472
##  7 TSQ3779 20S, 4a,   35.5    414         7003   229  3420   5.24 0.0472
##  8 TSQ3779 25-nor C   37.7    432         7445   229  3420   5.24 0.0472
##  9 TSQ3779 28, 30 C   37.2   2310         7244   229  3420   5.24 0.0472
## 10 TSQ3779 29, 30 C   36.0   1161        15685   229  3420   5.24 0.0472
## # ... with 514 more rows, and 26 more variables: maltene <dbl>,
## #   ref_amount_added.ug <dbl>, process <chr>, n_peaks <int>,
## #   n_standards <int>, ref_area.cpm <dbl>, amount.ug <dbl>,
## #   conc_rock.ug_g <dbl>, conc_tle.ug.g <dbl>, conc_maltene.ug.g <dbl>,
## #   calibration <chr>, data <list>, fit <list>, coefficients <list>,
## #   intercept <dbl>, intercept_se <dbl>, slope <dbl>, slope_se <dbl>,
## #   r2 <dbl>, total_volume.uL <dbl>, total_inject.uL <dbl>,
## #   ref_amount_inject_expected.ng <dbl>,
## #   ref_amount_inject_measured.ng <dbl>, ref_amount_measured.ug <dbl>,
…
